[{"text": "Wireless bridge 1",
 "id": "WB_1",
 "data": {"date": "2017/10/25 15:27:55 PM", "device_number": "0","mac_address": "0000"},
 "children": [
  {"text": "Iact 1",  "id": "WB_0_IACT_1", "type": "iact", "data": {"address": "0102030405060708", "status" : "OPEN"}}]
},
{"text": "Wireless bridge 2",
 "id": "WB_2",
 "data": {"device_number": "1","mac_address": "0000"},
 "children": [
  {"text": "Iact 2", "id": "WB_1_IACT_1", "type": "iact", "data": {"address": "0102030405060708", "status" : "CLOSE"}}]
}]
