   1                             		.file	"CCRXmachine.c"
   2                             		.section P,"ax"
   3                             	.Ltext0:
   4                             		.section	.text.max,"ax",@progbits
   5                             		.global	_max
   7                             	_max:
   8                             	.LFB0:
   9                             		.file 1 "../sample_app/src/CCRXmachine.c"
   1:../sample_app/src/CCRXmachine.c **** /******************************************************************************
   2:../sample_app/src/CCRXmachine.c **** * DISCLAIMER
   3:../sample_app/src/CCRXmachine.c **** * This software is supplied by Renesas Electronics Corporation and is only
   4:../sample_app/src/CCRXmachine.c **** * intended for use with Renesas products. No other uses are authorized. This
   5:../sample_app/src/CCRXmachine.c **** * software is owned by Renesas Electronics Corporation and is protected under
   6:../sample_app/src/CCRXmachine.c **** * all applicable laws, including copyright laws.
   7:../sample_app/src/CCRXmachine.c **** * THIS SOFTWARE IS PROVIDED "AS IS" AND RENESAS MAKES NO WARRANTIES REGARDING
   8:../sample_app/src/CCRXmachine.c **** * THIS SOFTWARE, WHETHER EXPRESS, IMPLIED OR STATUTORY, INCLUDING BUT NOT
   9:../sample_app/src/CCRXmachine.c **** * LIMITED TO WARRANTIES OF MERCHANTABILITY, FITNESS FOR A PARTICULAR PURPOSE
  10:../sample_app/src/CCRXmachine.c **** * AND NON-INFRINGEMENT.  ALL SUCH WARRANTIES ARE EXPRESSLY DISCLAIMED.
  11:../sample_app/src/CCRXmachine.c **** * TO THE MAXIMUM EXTENT PERMITTED NOT PROHIBITED BY LAW, NEITHER RENESAS
  12:../sample_app/src/CCRXmachine.c **** * ELECTRONICS CORPORATION NOR ANY OF ITS AFFILIATED COMPANIES SHALL BE LIABLE
  13:../sample_app/src/CCRXmachine.c **** * FOR ANY DIRECT, INDIRECT, SPECIAL, INCIDENTAL OR CONSEQUENTIAL DAMAGES FOR
  14:../sample_app/src/CCRXmachine.c **** * ANY REASON RELATED TO THIS SOFTWARE, EVEN IF RENESAS OR ITS AFFILIATES HAVE
  15:../sample_app/src/CCRXmachine.c **** * BEEN ADVISED OF THE POSSIBILITY OF SUCH DAMAGES.
  16:../sample_app/src/CCRXmachine.c **** * Renesas reserves the right, without notice, to make changes to this software
  17:../sample_app/src/CCRXmachine.c **** * and to discontinue the availability of this software. By using this software,
  18:../sample_app/src/CCRXmachine.c **** * you agree to the additional terms and conditions found by accessing the
  19:../sample_app/src/CCRXmachine.c **** * following link:
  20:../sample_app/src/CCRXmachine.c **** * http://www.renesas.com/disclaimer
  21:../sample_app/src/CCRXmachine.c **** *
  22:../sample_app/src/CCRXmachine.c **** * Copyright (C) 2015 Renesas Electronics Corporation. All rights reserved.
  23:../sample_app/src/CCRXmachine.c **** ******************************************************************************/
  24:../sample_app/src/CCRXmachine.c **** 
  25:../sample_app/src/CCRXmachine.c **** /******************************************************************************
  26:../sample_app/src/CCRXmachine.c **** * File Name     : CCRXmachine.c
  27:../sample_app/src/CCRXmachine.c **** * Device(s)     : RX631
  28:../sample_app/src/CCRXmachine.c **** * Tool-chain    : KPIT GNURX-ELF 15.01
  29:../sample_app/src/CCRXmachine.c **** * H/W platform  : G-CPX / EU-CPX2 / G-CPX3
  30:../sample_app/src/CCRXmachine.c **** * Description   : Sample software
  31:../sample_app/src/CCRXmachine.c **** ******************************************************************************/
  32:../sample_app/src/CCRXmachine.c **** #include <stdint.h>
  33:../sample_app/src/CCRXmachine.c **** #include <stddef.h>
  34:../sample_app/src/CCRXmachine.c **** #include "CCRXmachine.h"
  35:../sample_app/src/CCRXmachine.c **** 
  36:../sample_app/src/CCRXmachine.c **** /******************************************************************************
  37:../sample_app/src/CCRXmachine.c **** Macro definitions
  38:../sample_app/src/CCRXmachine.c **** ******************************************************************************/
  39:../sample_app/src/CCRXmachine.c **** #define HEAPSIZE (0x0000)
  40:../sample_app/src/CCRXmachine.c **** 
  41:../sample_app/src/CCRXmachine.c **** /******************************************************************************
  42:../sample_app/src/CCRXmachine.c **** Typedef definitions
  43:../sample_app/src/CCRXmachine.c **** ******************************************************************************/
  44:../sample_app/src/CCRXmachine.c **** typedef union {
  45:../sample_app/src/CCRXmachine.c ****     int64_t dummy ;
  46:../sample_app/src/CCRXmachine.c ****     int8_t heap[HEAPSIZE];
  47:../sample_app/src/CCRXmachine.c **** } heap_type_t;
  48:../sample_app/src/CCRXmachine.c **** 
  49:../sample_app/src/CCRXmachine.c **** /******************************************************************************
  50:../sample_app/src/CCRXmachine.c **** Exported global variables
  51:../sample_app/src/CCRXmachine.c **** ******************************************************************************/
  52:../sample_app/src/CCRXmachine.c **** /******************************************************************************
  53:../sample_app/src/CCRXmachine.c **** Exported global variables (to be accessed by other files)
  54:../sample_app/src/CCRXmachine.c **** ******************************************************************************/
  55:../sample_app/src/CCRXmachine.c **** /******************************************************************************
  56:../sample_app/src/CCRXmachine.c **** Private global variables and functions
  57:../sample_app/src/CCRXmachine.c **** ******************************************************************************/
  58:../sample_app/src/CCRXmachine.c **** static heap_type_t heap_area ;
  59:../sample_app/src/CCRXmachine.c **** static signed char *pbrk=(signed char *)&heap_area;
  60:../sample_app/src/CCRXmachine.c **** 
  61:../sample_app/src/CCRXmachine.c **** /******************************************************************************
  62:../sample_app/src/CCRXmachine.c **** Functions
  63:../sample_app/src/CCRXmachine.c **** ******************************************************************************/
  64:../sample_app/src/CCRXmachine.c **** 
  65:../sample_app/src/CCRXmachine.c **** signed long max(signed long data1, signed long data2)
  66:../sample_app/src/CCRXmachine.c **** {
  10                             		.loc 1 66 0
  11                             	.LVL0:
  67:../sample_app/src/CCRXmachine.c ****     return (data1 > data2)? data1 : data2;
  68:../sample_app/src/CCRXmachine.c **** }
  12                             		.loc 1 68 0
  13 0000 FC 13 21                		max	r2, r1
  14                             	.LVL1:
  15 0003 02                      		rts
  16                             	.LFE0:
  18                             		.section	.text.min,"ax",@progbits
  19                             		.global	_min
  21                             	_min:
  22                             	.LFB1:
  69:../sample_app/src/CCRXmachine.c **** 
  70:../sample_app/src/CCRXmachine.c **** signed long min(signed long data1, signed long data2)
  71:../sample_app/src/CCRXmachine.c **** {
  23                             		.loc 1 71 0
  24                             	.LVL2:
  72:../sample_app/src/CCRXmachine.c ****     return (data1 < data2)? data1 : data2;
  73:../sample_app/src/CCRXmachine.c **** }
  25                             		.loc 1 73 0
  26 0000 FC 17 21                		min	r2, r1
  27                             	.LVL3:
  28 0003 02                      		rts
  29                             	.LFE1:
  31                             		.section	.text.xchg,"ax",@progbits
  32                             		.global	_xchg
  34                             	_xchg:
  35                             	.LFB2:
  74:../sample_app/src/CCRXmachine.c **** 
  75:../sample_app/src/CCRXmachine.c **** void xchg(signed long *data1, signed long *data2)
  76:../sample_app/src/CCRXmachine.c **** {
  36                             		.loc 1 76 0
  37                             	.LVL4:
  77:../sample_app/src/CCRXmachine.c ****     signed long temp = *data1;
  38                             		.loc 1 77 0
  39 0000 EC 15                   		mov.L	[r1], r5
  40                             	.LVL5:
  78:../sample_app/src/CCRXmachine.c ****     *data1 = *data2;
  41                             		.loc 1 78 0
  42 0002 E0 21                   		mov.L	[r2], [r1]
  79:../sample_app/src/CCRXmachine.c ****     *data2 = temp;
  43                             		.loc 1 79 0
  44 0004 E3 25                   		mov.L	r5, [r2]
  45 0006 02                      		rts
  46                             	.LFE2:
  48                             		.section	.text.rmpab,"ax",@progbits
  49                             		.global	_rmpab
  51                             	_rmpab:
  52                             	.LFB3:
  80:../sample_app/src/CCRXmachine.c **** }
  81:../sample_app/src/CCRXmachine.c **** 
  82:../sample_app/src/CCRXmachine.c **** long long rmpab(long long init, unsigned long count, signed char *addr1, signed char *addr2)
  83:../sample_app/src/CCRXmachine.c **** {
  53                             		.loc 1 83 0
  54                             	.LVL6:
  55 0000 6E 67                   		pushm	r6-r7
  56                             	.LCFI0:
  57 0002 60 40                   		sub	#4, r0
  58                             	.LCFI1:
  59                             	.LVL7:
  60 0004 ED 0E 04                		mov.L	16[r0], r14
  61 0007 4B 43                   		add	r4, r3
  62                             	.LVL8:
  63                             	.L5:
  84:../sample_app/src/CCRXmachine.c ****     long long result = init;
  85:../sample_app/src/CCRXmachine.c ****     unsigned long index;
  86:../sample_app/src/CCRXmachine.c ****     for(index = 0; index < count; index++)
  64                             		.loc 1 86 0 discriminator 1
  65 0009 47 34                   		cmp	r3, r4
  66 000b 20 17                   		beq	.L9
  87:../sample_app/src/CCRXmachine.c ****     {
  88:../sample_app/src/CCRXmachine.c ****         result += addr1[index] * addr2[index];
  67                             		.loc 1 88 0 discriminator 2
  68 000d FD 28 4F                		mov.B	[r4+], r15
  69                             	.LVL9:
  70 0010 FD 28 E5                		mov.B	[r14+], r5
  71 0013 4F F5                   		mul	r15, r5
  72 0015 FD BF 5F                		shar	#31, r5, r15
  73 0018 FF 26 51                		add	r5, r1, r6
  74 001b FC 0B F2                		adc	r15, r2
  75                             	.LVL10:
  76 001e EF 61                   		mov.L	r6, r1
  77                             	.LVL11:
  78 0020 2E E9                   		bra	.L5
  79                             	.L9:
  89:../sample_app/src/CCRXmachine.c ****     }
  90:../sample_app/src/CCRXmachine.c ****     return result;
  91:../sample_app/src/CCRXmachine.c **** }
  80                             		.loc 1 91 0
  81 0022 3F 67 03                		rtsd	#12, r6-r7
  82                             	.LFE3:
  84                             		.section	.text.rmpaw,"ax",@progbits
  85                             		.global	_rmpaw
  87                             	_rmpaw:
  88                             	.LFB4:
  92:../sample_app/src/CCRXmachine.c **** 
  93:../sample_app/src/CCRXmachine.c **** long long rmpaw(long long init, unsigned long count, short *addr1, short *addr2)
  94:../sample_app/src/CCRXmachine.c **** {
  89                             		.loc 1 94 0
  90                             	.LVL12:
  91 0000 6E 67                   		pushm	r6-r7
  92                             	.LCFI2:
  93 0002 60 40                   		sub	#4, r0
  94                             	.LCFI3:
  95                             	.LVL13:
  96 0004 ED 0E 04                		mov.L	16[r0], r14
  97 0007 4B 33                   		add	r3, r3
  98                             	.LVL14:
  99 0009 4B 43                   		add	r4, r3
 100                             	.LVL15:
 101                             	.L11:
  95:../sample_app/src/CCRXmachine.c ****     long long result = init;
  96:../sample_app/src/CCRXmachine.c ****     unsigned long index;
  97:../sample_app/src/CCRXmachine.c ****     for(index = 0; index < count; index++)
 102                             		.loc 1 97 0 discriminator 1
 103 000b 47 34                   		cmp	r3, r4
 104 000d 20 17                   		beq	.L14
  98:../sample_app/src/CCRXmachine.c ****     {
  99:../sample_app/src/CCRXmachine.c ****         result += addr1[index] * addr2[index];
 105                             		.loc 1 99 0 discriminator 2
 106 000f FD 29 4F                		mov.W	[r4+], r15
 107 0012 FD 29 E5                		mov.W	[r14+], r5
 108 0015 4F F5                   		mul	r15, r5
 109 0017 FD BF 5F                		shar	#31, r5, r15
 110 001a FF 26 51                		add	r5, r1, r6
 111 001d FC 0B F2                		adc	r15, r2
 112                             	.LVL16:
 113 0020 EF 61                   		mov.L	r6, r1
 114                             	.LVL17:
 115 0022 2E E9                   		bra	.L11
 116                             	.L14:
 100:../sample_app/src/CCRXmachine.c ****     }
 101:../sample_app/src/CCRXmachine.c ****     return result;
 102:../sample_app/src/CCRXmachine.c **** }
 117                             		.loc 1 102 0
 118 0024 3F 67 03                		rtsd	#12, r6-r7
 119                             	.LFE4:
 121                             		.section	.text.rmpal,"ax",@progbits
 122                             		.global	_rmpal
 124                             	_rmpal:
 125                             	.LFB5:
 103:../sample_app/src/CCRXmachine.c **** 
 104:../sample_app/src/CCRXmachine.c **** long long rmpal(long long init, unsigned long count, long *addr1, long *addr2)
 105:../sample_app/src/CCRXmachine.c **** {
 126                             		.loc 1 105 0
 127                             	.LVL18:
 128 0000 6E 67                   		pushm	r6-r7
 129                             	.LCFI4:
 130 0002 60 40                   		sub	#4, r0
 131                             	.LCFI5:
 132                             	.LVL19:
 133 0004 ED 0E 04                		mov.L	16[r0], r14
 134 0007 6C 23                   		shll	#2, r3
 135                             	.LVL20:
 136 0009 4B 43                   		add	r4, r3
 137                             	.LVL21:
 138                             	.L16:
 106:../sample_app/src/CCRXmachine.c ****     long long result = init;
 107:../sample_app/src/CCRXmachine.c ****     unsigned long index;
 108:../sample_app/src/CCRXmachine.c ****     for(index = 0; index < count; index++)
 139                             		.loc 1 108 0 discriminator 1
 140 000b 47 34                   		cmp	r3, r4
 141 000d 20 17                   		beq	.L19
 109:../sample_app/src/CCRXmachine.c ****     {
 110:../sample_app/src/CCRXmachine.c ****         result += addr1[index] * addr2[index];
 142                             		.loc 1 110 0 discriminator 2
 143 000f FD 2A 4F                		mov.L	[r4+], r15
 144 0012 FD 2A E5                		mov.L	[r14+], r5
 145 0015 4F F5                   		mul	r15, r5
 146 0017 FD BF 5F                		shar	#31, r5, r15
 147 001a FF 26 51                		add	r5, r1, r6
 148 001d FC 0B F2                		adc	r15, r2
 149                             	.LVL22:
 150 0020 EF 61                   		mov.L	r6, r1
 151                             	.LVL23:
 152 0022 2E E9                   		bra	.L16
 153                             	.L19:
 111:../sample_app/src/CCRXmachine.c ****     }
 112:../sample_app/src/CCRXmachine.c ****     return result;
 113:../sample_app/src/CCRXmachine.c **** }
 154                             		.loc 1 113 0
 155 0024 3F 67 03                		rtsd	#12, r6-r7
 156                             	.LFE5:
 158                             		.section	.text.rolc,"ax",@progbits
 159                             		.global	_rolc
 161                             	_rolc:
 162                             	.LFB6:
 114:../sample_app/src/CCRXmachine.c **** 
 115:../sample_app/src/CCRXmachine.c **** unsigned long rolc(unsigned long data)
 116:../sample_app/src/CCRXmachine.c **** {
 163                             		.loc 1 116 0
 164                             	.LVL24:
 117:../sample_app/src/CCRXmachine.c ****     __asm("rolc %0":"=r"(data) : "r"(data):); 
 165                             		.loc 1 117 0
 166                             	 ; 117 "../sample_app/src/CCRXmachine.c" 1
 167 0000 7E 51                   		rolc r1
 168                             	 ; 0 "" 2
 169                             	.LVL25:
 118:../sample_app/src/CCRXmachine.c ****     return data;
 119:../sample_app/src/CCRXmachine.c **** }
 170                             		.loc 1 119 0
 171 0002 02                      		rts
 172                             	.LFE6:
 174                             		.section	.text.rorc,"ax",@progbits
 175                             		.global	_rorc
 177                             	_rorc:
 178                             	.LFB7:
 120:../sample_app/src/CCRXmachine.c **** 
 121:../sample_app/src/CCRXmachine.c **** unsigned long rorc(unsigned long data)
 122:../sample_app/src/CCRXmachine.c **** {
 179                             		.loc 1 122 0
 180                             	.LVL26:
 123:../sample_app/src/CCRXmachine.c ****     __asm("rorc %0":"=r"(data) : "r"(data):);
 181                             		.loc 1 123 0
 182                             	 ; 123 "../sample_app/src/CCRXmachine.c" 1
 183 0000 7E 41                   		rorc r1
 184                             	 ; 0 "" 2
 185                             	.LVL27:
 124:../sample_app/src/CCRXmachine.c ****     return data;
 125:../sample_app/src/CCRXmachine.c **** }
 186                             		.loc 1 125 0
 187 0002 02                      		rts
 188                             	.LFE7:
 190                             		.section	.text.rotl,"ax",@progbits
 191                             		.global	_rotl
 193                             	_rotl:
 194                             	.LFB8:
 126:../sample_app/src/CCRXmachine.c **** 
 127:../sample_app/src/CCRXmachine.c **** unsigned long rotl(unsigned long data, unsigned long num)
 128:../sample_app/src/CCRXmachine.c **** {
 195                             		.loc 1 128 0
 196                             	.LVL28:
 129:../sample_app/src/CCRXmachine.c ****     __asm("rotl %1, %0":"=r"(data) : "r"(num),"0"(data) :); 
 197                             		.loc 1 129 0
 198                             	 ; 129 "../sample_app/src/CCRXmachine.c" 1
 199 0000 FD 66 21                		rotl r2, r1
 200                             	 ; 0 "" 2
 201                             	.LVL29:
 130:../sample_app/src/CCRXmachine.c ****     return data;
 131:../sample_app/src/CCRXmachine.c **** }
 202                             		.loc 1 131 0
 203 0003 02                      		rts
 204                             	.LFE8:
 206                             		.section	.text.rotr,"ax",@progbits
 207                             		.global	_rotr
 209                             	_rotr:
 210                             	.LFB9:
 132:../sample_app/src/CCRXmachine.c **** 
 133:../sample_app/src/CCRXmachine.c **** unsigned long rotr(unsigned long data, unsigned long num)
 134:../sample_app/src/CCRXmachine.c **** {
 211                             		.loc 1 134 0
 212                             	.LVL30:
 135:../sample_app/src/CCRXmachine.c ****     __asm("rotr %1, %0":"=r"(data) : "r"(num),"0"(data) :); 
 213                             		.loc 1 135 0
 214                             	 ; 135 "../sample_app/src/CCRXmachine.c" 1
 215 0000 FD 64 21                		rotr r2, r1
 216                             	 ; 0 "" 2
 217                             	.LVL31:
 136:../sample_app/src/CCRXmachine.c ****     return data;
 137:../sample_app/src/CCRXmachine.c **** }
 218                             		.loc 1 137 0
 219 0003 02                      		rts
 220                             	.LFE9:
 222                             		.section	.text.set_ipl,"ax",@progbits
 223                             		.global	_set_ipl
 225                             	_set_ipl:
 226                             	.LFB10:
 138:../sample_app/src/CCRXmachine.c **** 
 139:../sample_app/src/CCRXmachine.c **** void set_ipl(signed long level)
 140:../sample_app/src/CCRXmachine.c **** {
 227                             		.loc 1 140 0
 228                             	.LVL32:
 141:../sample_app/src/CCRXmachine.c ****     unsigned int psw = __builtin_rx_mvfc(0x0);
 229                             		.loc 1 141 0
 230 0000 FD 6A 05                		mvfc	psw, r5
 231                             	.LVL33:
 142:../sample_app/src/CCRXmachine.c ****     psw &= 0xF0FFFFFF;
 232                             		.loc 1 142 0
 233 0003 74 25 FF FF FF F0       		and #0xf0ffffff, r5
 234                             	.LVL34:
 143:../sample_app/src/CCRXmachine.c ****     psw |= ((level << 24) & 0x0F000000);
 235                             		.loc 1 143 0
 236 0009 6D 81                   		shll	#24, r1
 237                             	.LVL35:
 238 000b 74 21 00 00 00 0F       		and #0xf000000, r1
 239 0011 57 51                   		or	r5, r1
 240                             	.LVL36:
 144:../sample_app/src/CCRXmachine.c ****     __builtin_rx_mvtc(0x0, psw);
 241                             		.loc 1 144 0
 242 0013 FD 68 10                		mvtc	r1, psw
 243 0016 02                      		rts
 244                             	.LFE10:
 246                             		.section	.text.get_ipl,"ax",@progbits
 247                             		.global	_get_ipl
 249                             	_get_ipl:
 250                             	.LFB11:
 145:../sample_app/src/CCRXmachine.c **** }
 146:../sample_app/src/CCRXmachine.c **** 
 147:../sample_app/src/CCRXmachine.c **** unsigned char get_ipl(void)
 148:../sample_app/src/CCRXmachine.c **** {
 251                             		.loc 1 148 0
 149:../sample_app/src/CCRXmachine.c ****     unsigned int psw = __builtin_rx_mvfc(0x0);
 252                             		.loc 1 149 0
 253 0000 FD 6A 01                		mvfc	psw, r1
 254                             	.LVL37:
 150:../sample_app/src/CCRXmachine.c ****     return (psw & 0x0F000000) >> 24;
 255                             		.loc 1 150 0
 256 0003 74 21 00 00 00 0F       		and #0xf000000, r1
 257                             	.LVL38:
 151:../sample_app/src/CCRXmachine.c **** }
 258                             		.loc 1 151 0
 259 0009 69 81                   		shlr	#24, r1
 260 000b 02                      		rts
 261                             	.LFE11:
 263                             		.section	.text.emul,"ax",@progbits
 264                             		.global	_emul
 266                             	_emul:
 267                             	.LFB12:
 152:../sample_app/src/CCRXmachine.c **** 
 153:../sample_app/src/CCRXmachine.c **** signed long long emul(signed long data1, signed long data2)
 154:../sample_app/src/CCRXmachine.c **** {
 268                             		.loc 1 154 0
 269                             	.LVL39:
 155:../sample_app/src/CCRXmachine.c ****     return ((signed long long)data1) * ((signed long long)data2);
 270                             		.loc 1 155 0
 271 0000 FC 1B 12                		emul	r1, r2
 272                             	.LVL40:
 156:../sample_app/src/CCRXmachine.c **** }
 273                             		.loc 1 156 0
 274 0003 EF 21                   		mov.L	r2, r1
 275                             	.LVL41:
 276 0005 EF 32                   		mov.L	r3, r2
 277 0007 02                      		rts
 278                             	.LFE12:
 280                             		.section	.text.emulu,"ax",@progbits
 281                             		.global	_emulu
 283                             	_emulu:
 284                             	.LFB13:
 157:../sample_app/src/CCRXmachine.c **** 
 158:../sample_app/src/CCRXmachine.c **** unsigned long long emulu(unsigned long data1, unsigned long data2)
 159:../sample_app/src/CCRXmachine.c **** {
 285                             		.loc 1 159 0
 286                             	.LVL42:
 160:../sample_app/src/CCRXmachine.c ****     return ((unsigned long long)data1) * ((unsigned long long)data2);
 287                             		.loc 1 160 0
 288 0000 FC 1F 12                		emulu	r1, r2
 289                             	.LVL43:
 161:../sample_app/src/CCRXmachine.c **** }
 290                             		.loc 1 161 0
 291 0003 EF 21                   		mov.L	r2, r1
 292                             	.LVL44:
 293 0005 EF 32                   		mov.L	r3, r2
 294 0007 02                      		rts
 295                             	.LFE13:
 297                             		.section	.text.chg_pmusr,"ax",@progbits
 298                             		.global	_chg_pmusr
 300                             	_chg_pmusr:
 301                             	.LFB14:
 162:../sample_app/src/CCRXmachine.c **** 
 163:../sample_app/src/CCRXmachine.c **** void chg_pmusr(void)
 164:../sample_app/src/CCRXmachine.c **** {
 302                             		.loc 1 164 0
 165:../sample_app/src/CCRXmachine.c ****     __asm("MVFC   PSW,R1" : : :"r1");
 303                             		.loc 1 165 0
 304                             	 ; 165 "../sample_app/src/CCRXmachine.c" 1
 305 0000 FD 6A 01                		MVFC   PSW,R1
 306                             	 ; 0 "" 2
 166:../sample_app/src/CCRXmachine.c ****     __asm("OR     #00100000h,R1" : : :"r1");
 307                             		.loc 1 166 0
 308                             	 ; 166 "../sample_app/src/CCRXmachine.c" 1
 309 0003 77 31 00 00 10          		OR     #00100000h,R1
 310                             	 ; 0 "" 2
 167:../sample_app/src/CCRXmachine.c ****     __asm("PUSH.L R1" : : :"r1");
 311                             		.loc 1 167 0
 312                             	 ; 167 "../sample_app/src/CCRXmachine.c" 1
 313 0008 7E A1                   		PUSH.L R1
 314                             	 ; 0 "" 2
 168:../sample_app/src/CCRXmachine.c ****     __asm("MVFC   PC,R1" : : :"r1");
 315                             		.loc 1 168 0
 316                             	 ; 168 "../sample_app/src/CCRXmachine.c" 1
 317 000a FD 6A 11                		MVFC   PC,R1
 318                             	 ; 0 "" 2
 169:../sample_app/src/CCRXmachine.c ****     __asm("ADD    #10,R1" : : :"r1");
 319                             		.loc 1 169 0
 320                             	 ; 169 "../sample_app/src/CCRXmachine.c" 1
 321 000d 62 A1                   		ADD    #10,R1
 322                             	 ; 0 "" 2
 170:../sample_app/src/CCRXmachine.c ****     __asm("PUSH.L R1" : : :"r1");
 323                             		.loc 1 170 0
 324                             	 ; 170 "../sample_app/src/CCRXmachine.c" 1
 325 000f 7E A1                   		PUSH.L R1
 326                             	 ; 0 "" 2
 171:../sample_app/src/CCRXmachine.c ****     __asm("RTE");
 327                             		.loc 1 171 0
 328                             	 ; 171 "../sample_app/src/CCRXmachine.c" 1
 329 0011 7F 95                   		RTE
 330                             	 ; 0 "" 2
 331 0013 02                      		rts
 332                             	.LFE14:
 334                             		.section	.text.set_acc,"ax",@progbits
 335                             		.global	_set_acc
 337                             	_set_acc:
 338                             	.LFB15:
 172:../sample_app/src/CCRXmachine.c **** }
 173:../sample_app/src/CCRXmachine.c **** 
 174:../sample_app/src/CCRXmachine.c **** void set_acc(signed long long data)
 175:../sample_app/src/CCRXmachine.c **** {
 339                             		.loc 1 175 0
 340                             	.LVL45:
 176:../sample_app/src/CCRXmachine.c ****     __builtin_rx_mvtachi(data >> 32);
 341                             		.loc 1 176 0
 342 0000 FD 17 02                		mvtachi	r2
 177:../sample_app/src/CCRXmachine.c ****     __builtin_rx_mvtaclo(data & 0xFFFFFFFF);
 343                             		.loc 1 177 0
 344 0003 FD 17 11                		mvtaclo	r1
 345 0006 02                      		rts
 346                             	.LFE15:
 348                             		.section	.text.get_acc,"ax",@progbits
 349                             		.global	_get_acc
 351                             	_get_acc:
 352                             	.LFB16:
 178:../sample_app/src/CCRXmachine.c **** }
 179:../sample_app/src/CCRXmachine.c **** 
 180:../sample_app/src/CCRXmachine.c **** signed long long get_acc(void)
 181:../sample_app/src/CCRXmachine.c **** {
 353                             		.loc 1 181 0
 182:../sample_app/src/CCRXmachine.c ****     signed long long result = ((signed long long)__builtin_rx_mvfachi()) << 32;
 354                             		.loc 1 182 0
 355 0000 FD 1F 02                		mvfachi	r2
 183:../sample_app/src/CCRXmachine.c ****     result |= (((signed long long)__builtin_rx_mvfacmi()) << 16) & 0xFFFF0000;
 356                             		.loc 1 183 0
 357 0003 FD 1F 21                		mvfacmi	r1
 184:../sample_app/src/CCRXmachine.c ****     return result;
 185:../sample_app/src/CCRXmachine.c **** }
 358                             		.loc 1 185 0
 359 0006 6D 01                   		shll	#16, r1
 360 0008 02                      		rts
 361                             	.LFE16:
 363                             		.section	.text.setpsw_i,"ax",@progbits
 364                             		.global	_setpsw_i
 366                             	_setpsw_i:
 367                             	.LFB17:
 186:../sample_app/src/CCRXmachine.c **** 
 187:../sample_app/src/CCRXmachine.c **** void setpsw_i(void)
 188:../sample_app/src/CCRXmachine.c **** {
 368                             		.loc 1 188 0
 189:../sample_app/src/CCRXmachine.c ****     unsigned int psw = __builtin_rx_mvfc(0x0);
 369                             		.loc 1 189 0
 370 0000 FD 6A 05                		mvfc	psw, r5
 371                             	.LVL46:
 190:../sample_app/src/CCRXmachine.c ****     psw |= 0x00010000;
 372                             		.loc 1 190 0
 373 0003 79 05                   		bset #16, r5
 374                             	.LVL47:
 191:../sample_app/src/CCRXmachine.c ****     __builtin_rx_mvtc(0x0, psw);
 375                             		.loc 1 191 0
 376 0005 FD 68 50                		mvtc	r5, psw
 377 0008 02                      		rts
 378                             	.LFE17:
 380                             		.section	.text.clrpsw_i,"ax",@progbits
 381                             		.global	_clrpsw_i
 383                             	_clrpsw_i:
 384                             	.LFB18:
 192:../sample_app/src/CCRXmachine.c **** }
 193:../sample_app/src/CCRXmachine.c **** 
 194:../sample_app/src/CCRXmachine.c **** void clrpsw_i(void)
 195:../sample_app/src/CCRXmachine.c **** {
 385                             		.loc 1 195 0
 196:../sample_app/src/CCRXmachine.c ****     unsigned int psw = __builtin_rx_mvfc(0x0);
 386                             		.loc 1 196 0
 387 0000 FD 6A 05                		mvfc	psw, r5
 388                             	.LVL48:
 197:../sample_app/src/CCRXmachine.c ****     psw &= 0xFFFEFFFF;
 389                             		.loc 1 197 0
 390 0003 7B 05                   		bclr #16, r5
 391                             	.LVL49:
 198:../sample_app/src/CCRXmachine.c ****     __builtin_rx_mvtc(0x0, psw);
 392                             		.loc 1 198 0
 393 0005 FD 68 50                		mvtc	r5, psw
 394 0008 02                      		rts
 395                             	.LFE18:
 397                             		.section	.text.macl,"ax",@progbits
 398                             		.global	_macl
 400                             	_macl:
 401                             	.LFB19:
 199:../sample_app/src/CCRXmachine.c **** }
 200:../sample_app/src/CCRXmachine.c **** 
 201:../sample_app/src/CCRXmachine.c **** long macl(short* data1, short* data2, unsigned long count)
 202:../sample_app/src/CCRXmachine.c **** {
 402                             		.loc 1 202 0
 403                             	.LVL50:
 404 0000 7E A7                   		push.l	r7
 405                             	.LCFI6:
 203:../sample_app/src/CCRXmachine.c ****     unsigned long index;
 204:../sample_app/src/CCRXmachine.c ****     __builtin_rx_mullo(0, 0);
 406                             		.loc 1 204 0
 407 0002 66 05                   		mov.L	#0, r5
 408 0004 FD 01 55                		mullo	r5, r5
 409                             	.LVL51:
 410                             	.L34:
 205:../sample_app/src/CCRXmachine.c ****     for(index = 0; index < count; index++)
 411                             		.loc 1 205 0 discriminator 1
 412 0007 47 35                   		cmp	r3, r5
 413 0009 20 1A                   		beq	.L37
 414 000b EF 14                   		mov.L	r1, r4
 415 000d EF 2E                   		mov.L	r2, r14
 206:../sample_app/src/CCRXmachine.c ****     {
 207:../sample_app/src/CCRXmachine.c ****         __builtin_rx_maclo(data1[index], data2[index]);
 416                             		.loc 1 207 0 discriminator 2
 417 000f FD 29 1F                		mov.W	[r1+], r15
 418 0012 FD 29 27                		mov.W	[r2+], r7
 419 0015 FD 05 F7                		maclo	r15, r7
 208:../sample_app/src/CCRXmachine.c ****         __builtin_rx_machi(data1[index], data2[index]);
 420                             		.loc 1 208 0 discriminator 2
 421 0018 DC 44                   		mov.W	[r4], r4
 422 001a DC EE                   		mov.W	[r14], r14
 423 001c FD 04 4E                		machi	r4, r14
 205:../sample_app/src/CCRXmachine.c ****     for(index = 0; index < count; index++)
 424                             		.loc 1 205 0 discriminator 2
 425 001f 62 15                   		add	#1, r5
 426                             	.LVL52:
 427 0021 2E E6                   		bra	.L34
 428                             	.L37:
 209:../sample_app/src/CCRXmachine.c ****     }
 210:../sample_app/src/CCRXmachine.c ****     return (long)(get_acc() >> 16);
 429                             		.loc 1 210 0
 430 0023 05 00 00 00             		bsr	_get_acc
 431                             	.LVL53:
 432 0027 6D 02                   		shll	#16, r2
 433 0029 69 01                   		shlr	#16, r1
 211:../sample_app/src/CCRXmachine.c **** }
 434                             		.loc 1 211 0
 435 002b 57 21                   		or	r2, r1
 436 002d 3F 77 01                		rtsd	#4, r7-r7
 437                             	.LFE19:
 439                             		.section	.text.macw1,"ax",@progbits
 440                             		.global	_macw1
 442                             	_macw1:
 443                             	.LFB20:
 212:../sample_app/src/CCRXmachine.c **** 
 213:../sample_app/src/CCRXmachine.c **** short macw1(short* data1, short* data2, unsigned long count)
 214:../sample_app/src/CCRXmachine.c **** {
 444                             		.loc 1 214 0
 445                             	.LVL54:
 446 0000 7E A7                   		push.l	r7
 447                             	.LCFI7:
 215:../sample_app/src/CCRXmachine.c ****     unsigned long index;
 216:../sample_app/src/CCRXmachine.c ****     __builtin_rx_mullo(0, 0);
 448                             		.loc 1 216 0
 449 0002 66 05                   		mov.L	#0, r5
 450 0004 FD 01 55                		mullo	r5, r5
 451                             	.LVL55:
 452                             	.L39:
 217:../sample_app/src/CCRXmachine.c ****     for(index = 0; index < count; index++)
 453                             		.loc 1 217 0 discriminator 1
 454 0007 47 35                   		cmp	r3, r5
 455 0009 20 1A                   		beq	.L42
 456 000b EF 14                   		mov.L	r1, r4
 457 000d EF 2E                   		mov.L	r2, r14
 218:../sample_app/src/CCRXmachine.c ****     {
 219:../sample_app/src/CCRXmachine.c ****         __builtin_rx_maclo(data1[index], data2[index]);
 458                             		.loc 1 219 0 discriminator 2
 459 000f FD 29 1F                		mov.W	[r1+], r15
 460 0012 FD 29 27                		mov.W	[r2+], r7
 461 0015 FD 05 F7                		maclo	r15, r7
 220:../sample_app/src/CCRXmachine.c ****         __builtin_rx_machi(data1[index], data2[index]);
 462                             		.loc 1 220 0 discriminator 2
 463 0018 DC 44                   		mov.W	[r4], r4
 464 001a DC EE                   		mov.W	[r14], r14
 465 001c FD 04 4E                		machi	r4, r14
 217:../sample_app/src/CCRXmachine.c ****     for(index = 0; index < count; index++)
 466                             		.loc 1 217 0 discriminator 2
 467 001f 62 15                   		add	#1, r5
 468                             	.LVL56:
 469 0021 2E E6                   		bra	.L39
 470                             	.L42:
 221:../sample_app/src/CCRXmachine.c ****     }
 222:../sample_app/src/CCRXmachine.c ****     __builtin_rx_racw(1);
 471                             		.loc 1 222 0
 472 0023 FD 18 00                		racw	#1
 223:../sample_app/src/CCRXmachine.c ****     return (short)(get_acc() >> 16);
 473                             		.loc 1 223 0
 474 0026 05 00 00 00             		bsr	_get_acc
 475                             	.LVL57:
 224:../sample_app/src/CCRXmachine.c **** }
 476                             		.loc 1 224 0
 477 002a 6B 01                   		shar	#16, r1
 478 002c 3F 77 01                		rtsd	#4, r7-r7
 479                             	.LFE20:
 481                             		.section	.text.macw2,"ax",@progbits
 482                             		.global	_macw2
 484                             	_macw2:
 485                             	.LFB21:
 225:../sample_app/src/CCRXmachine.c **** 
 226:../sample_app/src/CCRXmachine.c **** short macw2(short* data1, short* data2, unsigned long count)
 227:../sample_app/src/CCRXmachine.c **** {
 486                             		.loc 1 227 0
 487                             	.LVL58:
 488 0000 7E A7                   		push.l	r7
 489                             	.LCFI8:
 228:../sample_app/src/CCRXmachine.c ****     unsigned long index;
 229:../sample_app/src/CCRXmachine.c ****     __builtin_rx_mullo(0, 0);
 490                             		.loc 1 229 0
 491 0002 66 05                   		mov.L	#0, r5
 492 0004 FD 01 55                		mullo	r5, r5
 493                             	.LVL59:
 494                             	.L44:
 230:../sample_app/src/CCRXmachine.c ****     for(index = 0; index < count; index++)
 495                             		.loc 1 230 0 discriminator 1
 496 0007 47 35                   		cmp	r3, r5
 497 0009 20 1A                   		beq	.L47
 498 000b EF 14                   		mov.L	r1, r4
 499 000d EF 2E                   		mov.L	r2, r14
 231:../sample_app/src/CCRXmachine.c ****     {
 232:../sample_app/src/CCRXmachine.c ****         __builtin_rx_maclo(data1[index], data2[index]);
 500                             		.loc 1 232 0 discriminator 2
 501 000f FD 29 1F                		mov.W	[r1+], r15
 502 0012 FD 29 27                		mov.W	[r2+], r7
 503 0015 FD 05 F7                		maclo	r15, r7
 233:../sample_app/src/CCRXmachine.c ****         __builtin_rx_machi(data1[index], data2[index]);
 504                             		.loc 1 233 0 discriminator 2
 505 0018 DC 44                   		mov.W	[r4], r4
 506 001a DC EE                   		mov.W	[r14], r14
 507 001c FD 04 4E                		machi	r4, r14
 230:../sample_app/src/CCRXmachine.c ****     for(index = 0; index < count; index++)
 508                             		.loc 1 230 0 discriminator 2
 509 001f 62 15                   		add	#1, r5
 510                             	.LVL60:
 511 0021 2E E6                   		bra	.L44
 512                             	.L47:
 234:../sample_app/src/CCRXmachine.c ****     }
 235:../sample_app/src/CCRXmachine.c ****     __builtin_rx_racw(2);
 513                             		.loc 1 235 0
 514 0023 FD 18 10                		racw	#2
 236:../sample_app/src/CCRXmachine.c ****     return (short)(get_acc() >> 16);
 515                             		.loc 1 236 0
 516 0026 05 00 00 00             		bsr	_get_acc
 517                             	.LVL61:
 237:../sample_app/src/CCRXmachine.c **** }
 518                             		.loc 1 237 0
 519 002a 6B 01                   		shar	#16, r1
 520 002c 3F 77 01                		rtsd	#4, r7-r7
 521                             	.LFE21:
 523                             		.section	.text._CALL_INIT,"ax",@progbits
 524                             		.global	__CALL_INIT
 526                             	__CALL_INIT:
 527                             	.LFB22:
 238:../sample_app/src/CCRXmachine.c **** 
 239:../sample_app/src/CCRXmachine.c **** void _CALL_INIT(void)
 240:../sample_app/src/CCRXmachine.c **** {
 528                             		.loc 1 240 0
 529 0000 02                      		rts
 530                             	.LFE22:
 532                             		.section	.text._CALL_END,"ax",@progbits
 533                             		.global	__CALL_END
 535                             	__CALL_END:
 536                             	.LFB23:
 241:../sample_app/src/CCRXmachine.c **** }
 242:../sample_app/src/CCRXmachine.c ****  
 243:../sample_app/src/CCRXmachine.c **** void _CALL_END(void)
 244:../sample_app/src/CCRXmachine.c **** {
 537                             		.loc 1 244 0
 538 0000 02                      		rts
 539                             	.LFE23:
 541                             		.section	.text.nop,"ax",@progbits
 542                             		.global	_nop
 544                             	_nop:
 545                             	.LFB24:
 245:../sample_app/src/CCRXmachine.c **** }
 246:../sample_app/src/CCRXmachine.c **** 
 247:../sample_app/src/CCRXmachine.c **** void nop(void)
 248:../sample_app/src/CCRXmachine.c **** {
 546                             		.loc 1 248 0
 249:../sample_app/src/CCRXmachine.c ****     __asm("nop");
 547                             		.loc 1 249 0
 548                             	 ; 249 "../sample_app/src/CCRXmachine.c" 1
 549 0000 03                      		nop
 550                             	 ; 0 "" 2
 551 0001 02                      		rts
 552                             	.LFE24:
 554                             		.section	.text._INITSCT,"ax",@progbits
 555                             		.global	__INITSCT
 557                             	__INITSCT:
 558                             	.LFB25:
 250:../sample_app/src/CCRXmachine.c **** }
 251:../sample_app/src/CCRXmachine.c **** 
 252:../sample_app/src/CCRXmachine.c **** extern unsigned int _SECTOP_FL_PRG,_SECEND_FL_PRG,_SECTOP_PFL_CODE,_SECTOP_FL_BSS,_SECEND_FL_BSS,da
 253:../sample_app/src/CCRXmachine.c **** void _INITSCT(void)
 254:../sample_app/src/CCRXmachine.c **** {
 559                             		.loc 1 254 0
 560 0000 7E A7                   		push.l	r7
 561                             	.LCFI9:
 562                             	.LVL62:
 563 0002 FB 42 00 00 00 00       		mov.L	#__SECTOP_PFL_CODE, r4
 564 0008 FB 52 00 00 00 00       		mov.L	#__SECTOP_FL_PRG, r5
 565                             	.LVL63:
 566                             	.L52:
 255:../sample_app/src/CCRXmachine.c **** 
 256:../sample_app/src/CCRXmachine.c ****     unsigned int *src,*dst;
 257:../sample_app/src/CCRXmachine.c ****     
 258:../sample_app/src/CCRXmachine.c ****     src = &_SECTOP_PFL_CODE;
 259:../sample_app/src/CCRXmachine.c ****     for(dst = &_SECTOP_FL_PRG;dst < &_SECEND_FL_PRG;){
 567                             		.loc 1 259 0 discriminator 1
 568 000e 74 05 00 00 00 00       		cmp	#__SECEND_FL_PRG, r5
 569 0014 22 0A                   		bgeu	.L61
 570                             	.LVL64:
 260:../sample_app/src/CCRXmachine.c ****         *(dst++) = *(src++);
 571                             		.loc 1 260 0
 572 0016 FD 2A 47                		mov.L	[r4+], r7
 573 0019 FD 22 57                		mov.L	r7, [r5+]
 574                             	.LVL65:
 575 001c 2E F2                   		bra	.L52
 576                             	.L61:
 577 001e FB 42 00 00 00 00       		mov.L	#_mdata, r4
 578 0024 FB 52 00 00 00 00       		mov.L	#_data, r5
 579                             	.LVL66:
 580                             	.L54:
 261:../sample_app/src/CCRXmachine.c ****     }
 262:../sample_app/src/CCRXmachine.c **** 
 263:../sample_app/src/CCRXmachine.c ****     src = &mdata;
 264:../sample_app/src/CCRXmachine.c ****     for(dst = &data;dst < &edata;){
 581                             		.loc 1 264 0 discriminator 1
 582 002a 74 05 00 00 00 00       		cmp	#_edata, r5
 583 0030 22 0A                   		bgeu	.L62
 584                             	.LVL67:
 265:../sample_app/src/CCRXmachine.c ****         *(dst++) = *(src++);
 585                             		.loc 1 265 0
 586 0032 FD 2A 47                		mov.L	[r4+], r7
 587 0035 FD 22 57                		mov.L	r7, [r5+]
 588                             	.LVL68:
 589 0038 2E F2                   		bra	.L54
 590                             	.L62:
 591 003a FB 52 00 00 00 00       		mov.L	#_bss, r5
 592                             	.LVL69:
 593                             	.L56:
 266:../sample_app/src/CCRXmachine.c ****     }
 267:../sample_app/src/CCRXmachine.c **** 
 268:../sample_app/src/CCRXmachine.c ****     for(dst = &bss;dst < &ebss;){
 594                             		.loc 1 268 0 discriminator 1
 595 0040 74 05 00 00 00 00       		cmp	#_ebss, r5
 596 0046 22 09                   		bgeu	.L63
 597                             	.LVL70:
 269:../sample_app/src/CCRXmachine.c ****         *(dst++) = 0;
 598                             		.loc 1 269 0
 599 0048 66 07                   		mov.L	#0, r7
 600 004a FD 22 57                		mov.L	r7, [r5+]
 601                             	.LVL71:
 602 004d 2E F3                   		bra	.L56
 603                             	.L63:
 604 004f FB 52 00 00 00 00       		mov.L	#__SECTOP_FL_BSS, r5
 605                             	.LVL72:
 606                             	.L58:
 270:../sample_app/src/CCRXmachine.c ****     }
 271:../sample_app/src/CCRXmachine.c **** 
 272:../sample_app/src/CCRXmachine.c ****     for(dst = &_SECTOP_FL_BSS;dst < &_SECEND_FL_BSS;){
 607                             		.loc 1 272 0 discriminator 1
 608 0055 74 05 00 00 00 00       		cmp	#__SECEND_FL_BSS, r5
 609 005b 22 09                   		bgeu	.L64
 610                             	.LVL73:
 273:../sample_app/src/CCRXmachine.c ****         *(dst++) = 0;
 611                             		.loc 1 273 0
 612 005d 66 07                   		mov.L	#0, r7
 613 005f FD 22 57                		mov.L	r7, [r5+]
 614                             	.LVL74:
 615 0062 2E F3                   		bra	.L58
 616                             	.L64:
 274:../sample_app/src/CCRXmachine.c ****     }
 275:../sample_app/src/CCRXmachine.c **** }
 617                             		.loc 1 275 0
 618 0064 3F 77 01                		rtsd	#4, r7-r7
 619                             	.LFE25:
 621                             		.section	.text.sbrk,"ax",@progbits
 622                             		.global	_sbrk
 624                             	_sbrk:
 625                             	.LFB26:
 276:../sample_app/src/CCRXmachine.c **** 
 277:../sample_app/src/CCRXmachine.c **** signed char *sbrk(size_t size)
 278:../sample_app/src/CCRXmachine.c **** {
 626                             		.loc 1 278 0
 627                             	.LVL75:
 279:../sample_app/src/CCRXmachine.c ****     signed char *ptmp;
 280:../sample_app/src/CCRXmachine.c ****     if((pbrk+size) > (heap_area.heap+HEAPSIZE)){
 628                             		.loc 1 280 0
 629 0000 FB 42 00 00 00 00       		mov.L	#.LANCHOR0, r4
 630 0006 EC 45                   		mov.L	[r4], r5
 631 0008 4B 51                   		add	r5, r1
 632                             	.LVL76:
 633 000a 74 01 00 00 00 00       		cmp	#.LANCHOR1, r1
 634 0010 24 05                   		bgtu	.L67
 635                             	.LVL77:
 281:../sample_app/src/CCRXmachine.c ****         ptmp = (signed char *)-1;
 282:../sample_app/src/CCRXmachine.c ****     }else{
 283:../sample_app/src/CCRXmachine.c ****         ptmp = pbrk;
 284:../sample_app/src/CCRXmachine.c ****         pbrk += size;
 636                             		.loc 1 284 0
 637 0012 E3 41                   		mov.L	r1, [r4]
 638 0014 0C                      		bra	.L66
 639                             	.LVL78:
 640                             	.L67:
 281:../sample_app/src/CCRXmachine.c ****         ptmp = (signed char *)-1;
 641                             		.loc 1 281 0
 642 0015 FB 56 FF                		mov.L	#-1, r5
 643                             	.L66:
 644                             	.LVL79:
 285:../sample_app/src/CCRXmachine.c ****     }
 286:../sample_app/src/CCRXmachine.c ****     return ptmp;
 287:../sample_app/src/CCRXmachine.c **** }
 645                             		.loc 1 287 0
 646 0018 EF 51                   		mov.L	r5, r1
 647 001a 02                      		rts
 648                             	.LFE26:
 650                             		.section	.bss.heap_area,"aw",@nobits
 651                             		.balign 4
 652                             		.set	.LANCHOR1,. + 0
 655                             	_heap_area:
 656 0000 00 00 00 00 00 00 00 00 		.zero	8
 657                             		.section	.data.pbrk,"aw",@progbits
 658                             		.balign 4
 659                             		.set	.LANCHOR0,. + 0
 662                             	_pbrk:
 663 0000 00 00 00 00             		.long	_heap_area
 958                             	.Letext0:
 959                             		.file 2 "c:\\progra~2\\gccfor~1.201\\rx-elf\\rx-elf\\rx-elf\\include\\machine\\_default_types.h"
 960                             		.file 3 "c:\\progra~2\\gccfor~1.201\\rx-elf\\rx-elf\\rx-elf\\include\\stdint.h"
 961                             		.file 4 "c:\\progra~2\\gccfor~1.201\\rx-elf\\rx-elf\\lib\\gcc\\rx-elf\\4.8.4.201701-gnurx\\include
