   1                             		.file	"main.c"
   2                             		.section P,"ax"
   3                             	.Ltext0:
   4                             		.section	.text.main,"ax",@progbits
   5                             		.global	_main
   7                             	_main:
   8                             	.LFB0:
   9                             		.file 1 "../sample_app/src/main.c"
   1:../sample_app/src/main.c **** /*******************************************************************************
   2:../sample_app/src/main.c **** * DISCLAIMER
   3:../sample_app/src/main.c **** * This software is supplied by Renesas Electronics Corporation and is only
   4:../sample_app/src/main.c **** * intended for use with Renesas products. No other uses are authorized. This
   5:../sample_app/src/main.c **** * software is owned by Renesas Electronics Corporation and is protected under
   6:../sample_app/src/main.c **** * all applicable laws, including copyright laws.
   7:../sample_app/src/main.c **** * THIS SOFTWARE IS PROVIDED "AS IS" AND RENESAS MAKES NO WARRANTIES REGARDING
   8:../sample_app/src/main.c **** * THIS SOFTWARE, WHETHER EXPRESS, IMPLIED OR STATUTORY, INCLUDING BUT NOT
   9:../sample_app/src/main.c **** * LIMITED TO WARRANTIES OF MERCHANTABILITY, FITNESS FOR A PARTICULAR PURPOSE
  10:../sample_app/src/main.c **** * AND NON-INFRINGEMENT. ALL SUCH WARRANTIES ARE EXPRESSLY DISCLAIMED.
  11:../sample_app/src/main.c **** * TO THE MAXIMUM EXTENT PERMITTED NOT PROHIBITED BY LAW, NEITHER RENESAS
  12:../sample_app/src/main.c **** * ELECTRONICS CORPORATION NOR ANY OF ITS AFFILIATED COMPANIES SHALL BE LIABLE
  13:../sample_app/src/main.c **** * FOR ANY DIRECT, INDIRECT, SPECIAL, INCIDENTAL OR CONSEQUENTIAL DAMAGES FOR
  14:../sample_app/src/main.c **** * ANY REASON RELATED TO THIS SOFTWARE, EVEN IF RENESAS OR ITS AFFILIATES HAVE
  15:../sample_app/src/main.c **** * BEEN ADVISED OF THE POSSIBILITY OF SUCH DAMAGES.
  16:../sample_app/src/main.c **** * Renesas reserves the right, without notice, to make changes to this software
  17:../sample_app/src/main.c **** * and to discontinue the availability of this software. By using this software,
  18:../sample_app/src/main.c **** * you agree to the additional terms and conditions found by accessing the
  19:../sample_app/src/main.c **** * following link:
  20:../sample_app/src/main.c **** * http://www.renesas.com/disclaimer
  21:../sample_app/src/main.c **** * Copyright (C) 2015 Renesas Electronics Corporation. All rights reserved.
  22:../sample_app/src/main.c **** *******************************************************************************/
  23:../sample_app/src/main.c **** /*******************************************************************************
  24:../sample_app/src/main.c **** * File Name   : main.c
  25:../sample_app/src/main.c **** *    @version
  26:../sample_app/src/main.c **** *        $Rev: 3384 $
  27:../sample_app/src/main.c **** *    @last editor
  28:../sample_app/src/main.c **** *        $Author: a5089752 $
  29:../sample_app/src/main.c **** *    @date  
  30:../sample_app/src/main.c **** *        $Date:: 2017-05-31 13:49:31 +0900#$
  31:../sample_app/src/main.c **** * Description : 
  32:../sample_app/src/main.c **** ******************************************************************************/
  33:../sample_app/src/main.c **** 
  34:../sample_app/src/main.c **** /******************************************************************************
  35:../sample_app/src/main.c **** Includes
  36:../sample_app/src/main.c **** ******************************************************************************/
  37:../sample_app/src/main.c **** #include "r_typedefs.h"
  38:../sample_app/src/main.c **** #include "r_config.h"
  39:../sample_app/src/main.c **** #include "r_bsp_api.h"
  40:../sample_app/src/main.c **** #include "r_stdio_api.h"
  41:../sample_app/src/main.c **** #include "r_timer_api.h"
  42:../sample_app/src/main.c **** #include "r_c3sap_api.h"
  43:../sample_app/src/main.c **** #include "r_demo_main.h"
  44:../sample_app/src/main.c **** #include "r_demo_tools.h"
  45:../sample_app/src/main.c **** #include "r_demo_app.h"
  46:../sample_app/src/main.c **** 
  47:../sample_app/src/main.c **** /******************************************************************************
  48:../sample_app/src/main.c **** Macro definitions
  49:../sample_app/src/main.c **** ******************************************************************************/
  50:../sample_app/src/main.c **** /******************************************************************************
  51:../sample_app/src/main.c **** Typedef definitions
  52:../sample_app/src/main.c **** ******************************************************************************/
  53:../sample_app/src/main.c **** /******************************************************************************
  54:../sample_app/src/main.c **** Exported global variables
  55:../sample_app/src/main.c **** ******************************************************************************/
  56:../sample_app/src/main.c **** /******************************************************************************
  57:../sample_app/src/main.c **** Exported global variables (to be accessed by other files)
  58:../sample_app/src/main.c **** ******************************************************************************/
  59:../sample_app/src/main.c **** /******************************************************************************
  60:../sample_app/src/main.c **** Private global variables and functions
  61:../sample_app/src/main.c **** ******************************************************************************/
  62:../sample_app/src/main.c **** /******************************************************************************
  63:../sample_app/src/main.c **** Functions
  64:../sample_app/src/main.c **** ******************************************************************************/
  65:../sample_app/src/main.c **** 
  66:../sample_app/src/main.c **** /******************************************************************************
  67:../sample_app/src/main.c **** * Function Name: main
  68:../sample_app/src/main.c **** * Description :
  69:../sample_app/src/main.c **** * Arguments :
  70:../sample_app/src/main.c **** * Return Value :
  71:../sample_app/src/main.c **** ******************************************************************************/
  72:../sample_app/src/main.c **** void main(void)
  73:../sample_app/src/main.c **** { 
  10                             		.loc 1 73 0
  11 0000 60 40                   		sub	#4, r0
  12                             	.LCFI0:
  74:../sample_app/src/main.c ****     /* Set board type */
  75:../sample_app/src/main.c ****     R_BSP_SetBoardType(R_BOARD_G_CPX3);
  13                             		.loc 1 75 0
  14 0002 66 51                   		mov	#5, r1
  15 0004 05 00 00 00             		bsr	_R_BSP_SetBoardType
  16                             	.LVL0:
  76:../sample_app/src/main.c ****     
  77:../sample_app/src/main.c ****     /* Configure clocks */
  78:../sample_app/src/main.c ****     R_BSP_SetClock();
  17                             		.loc 1 78 0
  18 0008 05 00 00 00             		bsr	_R_BSP_SetClock
  19                             	.LVL1:
  79:../sample_app/src/main.c ****     
  80:../sample_app/src/main.c ****     /* Activate LEDs on RSK */
  81:../sample_app/src/main.c ****     R_BSP_InitLeds();
  20                             		.loc 1 81 0
  21 000c 05 00 00 00             		bsr	_R_BSP_InitLeds
  22                             	.LVL2:
  82:../sample_app/src/main.c ****     
  83:../sample_app/src/main.c ****     /* Set boot mode */
  84:../sample_app/src/main.c **** #if ( R_DEFINE_APP_BOOT == R_DEMO_APP_SROM_BOOT )
  85:../sample_app/src/main.c ****     R_BSP_SetBootMode(R_BSP_BOOT_SROM);
  86:../sample_app/src/main.c **** #else
  87:../sample_app/src/main.c ****     R_BSP_SetBootMode(R_BSP_BOOT_UART);
  23                             		.loc 1 87 0
  24 0010 66 01                   		mov	#0, r1
  25 0012 05 00 00 00             		bsr	_R_BSP_SetBootMode
  26                             	.LVL3:
  88:../sample_app/src/main.c **** #endif
  89:../sample_app/src/main.c ****     
  90:../sample_app/src/main.c ****     /* Configure oneshot timer */
  91:../sample_app/src/main.c ****     if (R_BSP_ConfigureTimer(R_PCLKB_HZ, R_HW_TIMER_TICK_PERIOD, R_TIMER_IPR, R_BSP_CLK_OUT_OFF, &R
  27                             		.loc 1 91 0
  28 0016 F8 02 00 00 00 00       		mov.L	#_R_TIMER_Handle, [r0]
  29 001c FB 12 00 6C DC 02       		mov.L	#0x2dc6c00, r1
  30 0022 66 A2                   		mov.L	#10, r2
  31 0024 66 73                   		mov	#7, r3
  32 0026 66 04                   		mov	#0, r4
  33 0028 05 00 00 00             		bsr	_R_BSP_ConfigureTimer
  34                             	.LVL4:
  35 002c 61 01                   		cmp	#0, r1
  36 002e 20 0C                   		beq	.L2
  92:../sample_app/src/main.c ****     {
  93:../sample_app/src/main.c ****         /* Indicate error. */
  94:../sample_app/src/main.c ****         R_DEMO_LED(0u, R_DEMO_LED_ALERT);
  37                             		.loc 1 94 0
  38 0030 66 01                   		mov	#0, r1
  39 0032 66 12                   		mov	#1, r2
  40 0034 05 00 00 00             		bsr	_R_DEMO_LED
  41                             	.LVL5:
  42                             	.L3:
  43 0038 2E 00                   		bra	.L3
  44                             	.L2:
  95:../sample_app/src/main.c ****         while(1){/**/};
  96:../sample_app/src/main.c ****     }
  97:../sample_app/src/main.c ****     
  98:../sample_app/src/main.c ****     /* STDIO init. */
  99:../sample_app/src/main.c ****     if (R_STDIO_Init() != R_RESULT_SUCCESS)
  45                             		.loc 1 99 0
  46 003a 05 00 00 00             		bsr	_R_STDIO_Init
  47                             	.LVL6:
  48 003e 61 01                   		cmp	#0, r1
  49 0040 20 0C                   		beq	.L4
 100:../sample_app/src/main.c ****     {
 101:../sample_app/src/main.c ****         /* Indicate error. */
 102:../sample_app/src/main.c ****         R_DEMO_LED(0u, R_DEMO_LED_ALERT);
  50                             		.loc 1 102 0
  51 0042 66 01                   		mov	#0, r1
  52 0044 66 12                   		mov	#1, r2
  53 0046 05 00 00 00             		bsr	_R_DEMO_LED
  54                             	.LVL7:
  55                             	.L5:
  56 004a 2E 00                   		bra	.L5
  57                             	.L4:
 103:../sample_app/src/main.c ****         while(1){/**/};
 104:../sample_app/src/main.c ****     }
 105:../sample_app/src/main.c ****     
 106:../sample_app/src/main.c ****     /* Initialize timer module */
 107:../sample_app/src/main.c ****     if (R_TIMER_Init(R_HW_TIMER_TICK_PERIOD) != R_RESULT_SUCCESS)
  58                             		.loc 1 107 0
  59 004c 66 A1                   		mov.L	#10, r1
  60 004e 05 00 00 00             		bsr	_R_TIMER_Init
  61                             	.LVL8:
  62 0052 61 01                   		cmp	#0, r1
  63 0054 20 0C                   		beq	.L6
 108:../sample_app/src/main.c ****     {
 109:../sample_app/src/main.c ****         /* Indicate error. */
 110:../sample_app/src/main.c ****         R_DEMO_LED(0u, R_DEMO_LED_ALERT);
  64                             		.loc 1 110 0
  65 0056 66 01                   		mov	#0, r1
  66 0058 66 12                   		mov	#1, r2
  67 005a 05 00 00 00             		bsr	_R_DEMO_LED
  68                             	.LVL9:
  69                             	.L7:
  70 005e 2E 00                   		bra	.L7
  71                             	.L6:
 111:../sample_app/src/main.c ****         while(1){/**/};
 112:../sample_app/src/main.c ****     }
 113:../sample_app/src/main.c ****     
 114:../sample_app/src/main.c ****     /* Start demo application menu. */
 115:../sample_app/src/main.c ****     R_DEMO_Main();
 116:../sample_app/src/main.c **** }
  72                             		.loc 1 116 0
  73 0060 62 40                   		add	#4, r0
 115:../sample_app/src/main.c **** }
  74                             		.loc 1 115 0
  75 0062 04 00 00 00             		bra	_R_DEMO_Main
  76                             	.LVL10:
  77                             	.LFE0:
 109                             	.Letext0:
 110                             		.file 2 "c:\\progra~2\\gccfor~1.201\\rx-elf\\rx-elf\\rx-elf\\include\\machine\\_default_types.h"
 111                             		.file 3 "c:\\progra~2\\gccfor~1.201\\rx-elf\\rx-elf\\rx-elf\\include\\stdint.h"
 112                             		.file 4 "C:/API/-PLC/-Workspace/G3_PLC_Demo/Peer/extern/common/inc/r_typedefs.h"
 113                             		.file 5 "C:/API/-PLC/-Workspace/G3_PLC_Demo/Peer/extern/bsp/inc/r_bsp_api.h"
 114                             		.file 6 "C:/API/-PLC/-Workspace/G3_PLC_Demo/Peer/sample_app/inc/r_demo_tools.h"
 115                             		.file 7 "C:/API/-PLC/-Workspace/G3_PLC_Demo/Peer/extern/timer/inc/r_timer_api.h"
 116                             		.file 8 "C:/API/-PLC/-Workspace/G3_PLC_Demo/Peer/sample_app/inc/r_demo_main.h"
 117                             		.file 9 "C:/API/-PLC/-Workspace/G3_PLC_Demo/Peer/extern/stdio/inc/r_stdio_api.h"
