   1                             		.file	"vecttbl.c"
   2                             		.section P,"ax"
   3                             	.Ltext0:
   4                             		.global	_MDEreg
   5                             		.global	_Fixed_Vectors
   6                             		.section	SECMDEreg,"a",@progbits
   7                             		.balign 4
  10                             	_MDEreg:
  11 0000 FF FF FF FF             		.long	-1
  12                             		.section	FIXEDVECT,"a",@progbits
  13                             		.balign 4
  16                             	_Fixed_Vectors:
  17 0000 00 00 00 00             		.long	_Excep_SuperVisorInst
  18 0004 00 00 00 00             		.long	_Dummy
  19 0008 00 00 00 00             		.long	_Dummy
  20 000c 00 00 00 00             		.long	_Excep_UndefinedInst
  21 0010 00 00 00 00             		.long	_Dummy
  22 0014 00 00 00 00             		.long	_Excep_FloatingPoint
  23 0018 00 00 00 00             		.long	_Dummy
  24 001c 00 00 00 00             		.long	_Dummy
  25 0020 00 00 00 00             		.long	_Dummy
  26 0024 00 00 00 00             		.long	_Dummy
  27 0028 00 00 00 00             		.long	_NonMaskableInterrupt
  28 002c 00 00 00 00             		.long	_PowerON_Reset_PC
  29                             		.section P,"ax"
  30                             	.Letext0:
  31                             		.file 1 "../sample_app/src/vecttbl.c"
